<svg xmlns="http://www.w3.org/2000/svg" width="16.922" height="16.955" viewBox="0 0 16.922 16.955">
  <path id="Path_4" data-name="Path 4" d="M205.751,129.864l1.937,1.94,3.877-3.876-1.938-1.938,2.3-2.3,2.3,2.3-1.937,1.936,3.876,3.876,1.937-1.938,2.278,2.351-2.278,2.252-1.937-1.937-3.875,3.875,1.936,1.936-2.3,2.3-2.3-2.3,1.937-1.937-3.875-3.875-1.938,1.939-2.289-2.377Z" transform="translate(-203.461 -123.688)" fill="#3f2e27" fill-rule="evenodd"/>
</svg>
