<svg id="Group_648" data-name="Group 648" xmlns="http://www.w3.org/2000/svg" width="36.512" height="32.861" viewBox="0 0 36.512 32.861">
  <path id="Path_1129" data-name="Path 1129" d="M196.118,283.4a1.22,1.22,0,0,1-1.217,1.217h-1.217a1.15,1.15,0,0,1-1.217-1.217v-1.217H191.25V283.4a2.441,2.441,0,0,0,2.434,2.434H194.9a2.441,2.441,0,0,0,2.434-2.434v-6.085h-1.217Z" transform="translate(-179.079 -261.491)" fill="#b39854"/>
  <path id="Path_1130" data-name="Path 1130" d="M32.861,40.859H23.124V37.208l-7.3-8.52H2.434A2.441,2.441,0,0,0,0,31.122V59.115a2.441,2.441,0,0,0,2.434,2.434H20.69a2.441,2.441,0,0,0,2.434-2.434V56.681h9.737a3.586,3.586,0,0,0,3.651-3.651V44.51A3.586,3.586,0,0,0,32.861,40.859ZM15.822,30.514l5.72,6.694h-4.5a1.309,1.309,0,0,1-1.217-1.217Zm6.085,28.6a1.22,1.22,0,0,1-1.217,1.217H2.434a1.22,1.22,0,0,1-1.217-1.217V31.122a1.22,1.22,0,0,1,1.217-1.217H14.6V35.99a2.441,2.441,0,0,0,2.434,2.434h4.868v2.434H12.171A3.586,3.586,0,0,0,8.519,44.51v8.52a3.586,3.586,0,0,0,3.651,3.651h9.737ZM35.295,53.03a2.441,2.441,0,0,1-2.434,2.434H12.171A2.441,2.441,0,0,1,9.737,53.03V44.51a2.441,2.441,0,0,1,2.434-2.434h20.69a2.441,2.441,0,0,1,2.434,2.434Z" transform="translate(0 -28.688)" fill="#b39854"/>
  <path id="Path_1131" data-name="Path 1131" d="M309.651,277.312H306v8.52h1.217V282.18h2.434a2.434,2.434,0,0,0,0-4.868Zm0,3.651h-2.434v-2.434h2.434a1.217,1.217,0,1,1,0,2.434Z" transform="translate(-286.527 -261.49)" fill="#b39854"/>
  <path id="Path_1132" data-name="Path 1132" d="M420.75,279.746V283.4a2.441,2.441,0,0,0,2.434,2.434h3.651v-4.868h-3.651v1.217h2.434v2.434h-2.434a1.15,1.15,0,0,1-1.217-1.217v-3.651a1.15,1.15,0,0,1,1.217-1.217h3.651v-1.217h-3.651A2.441,2.441,0,0,0,420.75,279.746Z" transform="translate(-393.975 -261.49)" fill="#b39854"/>
</svg>
