<svg xmlns="http://www.w3.org/2000/svg" width="379" height="179.927" viewBox="0 0 379 179.927">
  <g id="logo" transform="translate(1.733 -0.869)">
    <path id="Path_4" data-name="Path 4" d="M234.018,107.707a23.464,23.464,0,0,1-16.772,3.089c-6.349-1.1-11.364-4.262-14.572-9.937a23.585,23.585,0,0,1-2.769-14.711c.275-2.311,1.977-3.317,3.916-1.721-.051.019-.113.064-.149.047-2.113-.963-3.61.418-3.688,2.777a16.9,16.9,0,0,0,13.239,17.4,15.916,15.916,0,0,0,12.186-1.6,13.872,13.872,0,0,0,6.678-9.941c1.079-5.746-.395-11.1-2.642-16.306a105.608,105.608,0,0,0-9.436-16.473c-2.724-4.094-5.556-8.117-8.272-12.218-1.038-1.566-1.9-3.249-2.813-4.9-.3-.549-.636-1.283-.017-1.708.651-.446,1.163.207,1.563.675q4.635,5.43,9.239,10.887c3.924,4.669,7.924,9.276,11.71,14.054a59.255,59.255,0,0,1,9.408,15.956,23.972,23.972,0,0,1,1.638,11.8A17.228,17.228,0,0,1,234.018,107.707Zm-205,52.075a1.434,1.434,0,0,0,.036.878c.656,0,2.13-.1,4.162-.1,1.624,0,2.848.062,4.073.062a1.181,1.181,0,0,0,.124-.905,12.945,12.945,0,0,1-1.845-.346c-.816-.222-.976-.692-1-1.757-.036-.683-.036-4.694-.036-6.725,0-2.689,0-7.392.062-8.11,0-.027.062-.186.124-.186.568-.062,9.077-.1,9.769-.027.1,0,.222.151.248.276.062.781.062,5.288.062,8.048,0,2.129,0,6.415-.027,7.072-.036.843-.159,1.251-.719,1.437a10.772,10.772,0,0,1-1.881.319,1.274,1.274,0,0,0,0,.905c.905-.027,2.5-.1,3.975-.1,1.908,0,3.346.1,4.223.1a1.518,1.518,0,0,0,.1-.905,9.547,9.547,0,0,1-2-.346c-.595-.186-.781-.533-.878-1.411-.089-1.065-.062-4.508-.062-7.232,0-3.727,0-5.7-.026-6.726.062-1.065.186-1.375.905-1.633a8.929,8.929,0,0,1,1.6-.337,1.355,1.355,0,0,0,0-.878c-.843,0-2.5.124-3.913.124H32.964c-1.535,0-2.91-.1-4.037-.1a1.243,1.243,0,0,0-.036.878,12.711,12.711,0,0,1,1.943.346c.656.186.781.533.843,1.375.036.568.062,3.948.062,6.983,0,2.724-.026,5.351-.026,6.416-.062,1.437-.159,1.943-1.065,2.218a12.566,12.566,0,0,1-1.695.346l.062.036ZM97.55,174.808l86.215-.055,1.164-1.164,1.3,1.3,2.592-2.592-1.3-1.3,1.539-1.539L190.6,171l-1.3,1.295,2.592,2.592,1.3-1.3,1.219,1.22,86.231-.073,2.685-2.686,3.078,3.078-3.078,3.078-2.759-2.759-86.23.074-1.146,1.147-1.3-1.3-2.591,2.591,1.295,1.294-1.539,1.54-1.539-1.54,1.3-1.3-2.591-2.591-1.3,1.3-1.225-1.225-86.227.077-2.687,2.686-3.079-3.078,3.079-3.078,2.759,2.758Zm94.43-15.062a1.529,1.529,0,0,0,.027.914c.728-.036,2.786-.1,4.232-.1,1.4,0,2.564.062,4,.062a1.013,1.013,0,0,0,.1-.905,12,12,0,0,1-1.846-.346c-.816-.222-.94-.657-.976-1.722a.739.739,0,0,1,.248-.568c.258-.311,9.929-10.675,10.178-11.012.062-.124.186,0,.186.089,0,1.97,0,10.674-.062,11.775-.026.808-.186,1.251-.683,1.438a8.286,8.286,0,0,1-1.916.346,1.145,1.145,0,0,0,0,.905c.816-.027,2.351-.1,4.037-.1,2.289,0,3.292.1,4.17.1.151-.062.213-.781.124-.905a9.982,9.982,0,0,1-2.041-.346c-.594-.186-.781-.568-.843-1.438-.089-1.127-.089-4.605-.089-7.294,0-3.727,0-5.511.062-6.611.062-1.065.151-1.4.843-1.659a10.253,10.253,0,0,1,1.659-.275,1.376,1.376,0,0,0,.027-.94c-.657,0-2.378.124-3.94.124h-3.851a1.019,1.019,0,0,0-.036.905,7.731,7.731,0,0,1,1.855.381.929.929,0,0,1,.656.968,3.041,3.041,0,0,1,0,.5,2.313,2.313,0,0,1-.159.408c-1.313,1.66-9.45,10.3-10.266,11.145-.062.062-.16.062-.187-.027,0-3.106,0-10.586.062-11.65.027-.941.213-1.216.843-1.411a14.031,14.031,0,0,1,1.535-.311,1.042,1.042,0,0,0,.026-.878c-.9,0-2.156.1-3.913.1h-4a1.235,1.235,0,0,0-.036.878,12.848,12.848,0,0,1,1.979.373c.595.187.718.533.781,1.349.027.532.062,3.975.062,7.01,0,2.724-.035,5.351-.035,6.415-.062,1.437-.187,1.943-1.092,2.227a11.064,11.064,0,0,1-1.722.275v-.186Zm40-13.487c.036.151.852.062.976-.062a41.06,41.06,0,0,1,.5-4.827,58.654,58.654,0,0,0-6.167-.621,12.917,12.917,0,0,0-6.353,1.437,9.487,9.487,0,0,0-4.978,8.607c0,6.513,3.878,10.337,10.861,10.337a16.183,16.183,0,0,0,4.791-.79c.719-.435,2.067-2.875,2.378-4.224-.062-.221-.595-.5-.754-.5a11.248,11.248,0,0,1-2.343,3.061,5.222,5.222,0,0,1-3.442,1.065c-5.572,0-8.359-4.223-8.359-9.228,0-5.3,2.6-8.643,7.134-8.643a9.039,9.039,0,0,1,3.886.692C231.265,143.126,231.673,143.756,231.983,146.259Zm3.722,13.487c-.089.124-.089.851.062.914.914-.036,2.6-.1,4.01-.1s3.381.062,4.011.062c.089-.1.151-.816,0-.905a15.384,15.384,0,0,1-1.6-.284c-.852-.222-1.038-.5-1.065-1.562-.036-1.385-.062-5.04-.062-6.61a.142.142,0,0,1,.089-.124c1.038.035,1.882.408,2.884,1.881,2.342,3.407,3.789,5.6,4.978,6.664a3.061,3.061,0,0,0,1.934.878,30.652,30.652,0,0,0,4.17.062c.124-.027.186-.905.063-.905-2.538-.159-3.133-.408-4.827-2.573-1.127-1.4-2.467-3.159-3.38-4.41a8.486,8.486,0,0,0-2.192-2.352c-.062-.062-.027-.124,0-.186.94-.718,1.757-2.067,3.043-4.41,1.153-2.13,1.722-2.538,2.4-2.538a4.821,4.821,0,0,1,1.819.6c.062.035.249-.027.311-.187a6.653,6.653,0,0,0,.533-2.254,1.049,1.049,0,0,0-.186-.373,2.228,2.228,0,0,0-1-.319c-1.97,0-3.071,1.1-5.129,5.014a19.38,19.38,0,0,1-2.1,3.283,3.909,3.909,0,0,1-3.221,1.162.143.143,0,0,1-.159-.124c0-1.819,0-4.765.036-6.016.026-1.091.248-1.535,1.215-1.721.408-.089.594-.124,1.189-.213.186-.133.159-.852,0-.914-.559-.026-2.156.1-3.851.1-1.5,0-3.186-.1-3.815-.1-.16.1-.186.755-.062.878.657.1,1.153.16,1.6.249.878.186.967.692,1,1.535.062,1.286.026,4.818.026,6.477,0,1.508,0,5.572.036,7.018-.062,1.624-.222,1.97-1.411,2.192-.373.062-.692.124-1.287.186Zm21.689-1.313a1.877,1.877,0,0,0-.186.63,4,4,0,0,0,.692,2.316,2.376,2.376,0,0,0,1.411.408c2.192,0,4.037-3.008,4.977-4.729a130.83,130.83,0,0,0,5.972-12.431c.852-1.935,1.065-2.219,3.07-2.529.124-.062.16-.816.036-.878-.852.026-1.943.089-3.23.089-1.34,0-2.28-.062-3.407-.062-.124.062-.186.79-.036.879a9.611,9.611,0,0,1,1.845.373.807.807,0,0,1,.471,1,59.735,59.735,0,0,1-3.913,9.423.1.1,0,0,1-.186.035c-.594-1.127-3.878-7.95-4.791-10.017a.366.366,0,0,1,.2-.533,10.416,10.416,0,0,1,1.375-.248,1.169,1.169,0,0,0,0-.914c-.381.036-1.819.1-3.505.1-1.446,0-3.256-.1-3.851-.1a1.187,1.187,0,0,0-.062.879c2.254.311,2.564.443,3.718,2.724,1.695,3.319,4.792,9.832,5.262,10.958a1.578,1.578,0,0,1,.036.533c-1.1,2.219-1.881,2.911-3.008,2.911a6.911,6.911,0,0,1-2.884-.781v-.036Zm32.146-12.174c.036.151.852.062.976-.062a41.056,41.056,0,0,1,.5-4.827,58.646,58.646,0,0,0-6.167-.621,12.917,12.917,0,0,0-6.353,1.437,9.486,9.486,0,0,0-4.978,8.607c0,6.513,3.878,10.337,10.861,10.337a16.186,16.186,0,0,0,4.791-.79c.719-.435,2.067-2.875,2.378-4.224-.062-.221-.594-.5-.754-.5a11.251,11.251,0,0,1-2.343,3.061,5.222,5.222,0,0,1-3.443,1.065c-5.572,0-8.358-4.223-8.358-9.228,0-5.3,2.6-8.643,7.134-8.643a9.04,9.04,0,0,1,3.886.692c1.153.559,1.562,1.189,1.872,3.691Zm20.313,0c.036.151.852.062.976-.062a41.048,41.048,0,0,1,.5-4.827,58.649,58.649,0,0,0-6.167-.621,12.917,12.917,0,0,0-6.353,1.437,9.487,9.487,0,0,0-4.978,8.607c0,6.513,3.878,10.337,10.861,10.337a16.184,16.184,0,0,0,4.791-.79c.719-.435,2.067-2.875,2.378-4.224-.062-.221-.595-.5-.754-.5a11.251,11.251,0,0,1-2.343,3.061,5.222,5.222,0,0,1-3.442,1.065c-5.572,0-8.359-4.223-8.359-9.228,0-5.3,2.6-8.643,7.134-8.643a9.039,9.039,0,0,1,3.886.692c1.154.559,1.562,1.189,1.872,3.691Zm16.968,13.487a11.3,11.3,0,0,1-2.13-.346c-.719-.186-.967-.559-1.065-1.659-.1-1.588-.1-10.266-.1-14.863a.263.263,0,0,1,.159-.248c.719-.036,2.911-.036,4.383,0a1.254,1.254,0,0,1,1.225.905,11.142,11.142,0,0,1,.5,2.786c.1.124.9.124,1-.036a41.5,41.5,0,0,1,.719-5.288.526.526,0,0,0-.31-.159,6.521,6.521,0,0,1-3.035.47H316.582a5.627,5.627,0,0,1-2.529-.47c-.071-.027-.346.071-.346.133a47.825,47.825,0,0,1-.63,5.164,1.4,1.4,0,0,0,.976.249,18.965,18.965,0,0,1,1.215-2.911,1.527,1.527,0,0,1,1.313-.878c1.189-.027,3.505-.027,4.037,0a.267.267,0,0,1,.222.249c0,5.2-.027,11.9-.124,14.339-.035,1.437-.186,2.067-1.189,2.254a15.605,15.605,0,0,1-2.227.311,1.345,1.345,0,0,0,0,.914c.816,0,2.413-.1,4.729-.1H326.7c.151-.062.213-.754.124-.905v.089ZM333.2,142.1a13.438,13.438,0,0,1,1.819.275c.524.16.807.444.843,1.322.062,1.153.027,3.186.027,7.1,0,3.354,0,6.105-.062,7.107-.088,1.127-.31,1.411-1,1.6-.532.124-1.437.187-2,.249-.16.1-.133.816.027.914,2.067-.062,5.732.089,7.134.089a12.376,12.376,0,0,0,4.854-.781c2.378-1.029,3.913-2.786,3.913-5.386,0-2.751-1.97-4.259-4.41-4.819-.062-.035-.062-.1,0-.124a4.465,4.465,0,0,0,3.035-4.01c0-3.691-3.381-4.384-5.51-4.384-2.032,0-3.221.062-5.04.062s-2.875-.089-3.6-.089a1.077,1.077,0,0,0-.027.878Zm6.761.248c2.973,0,4.667,1.251,4.667,3.976a3.237,3.237,0,0,1-1.473,2.91,5.16,5.16,0,0,1-2.538.373c-.878,0-1.6-.026-1.943-.062a.189.189,0,0,1-.151-.151c0-2.227.062-5.545.088-6.45a.712.712,0,0,1,.249-.506,6.317,6.317,0,0,1,1.1-.089Zm1.784,17.214a5.426,5.426,0,0,1-2.414-.435,1.846,1.846,0,0,1-.719-1.189c-.088-1.287-.088-5.1-.088-7.081,0-.062.088-.124.151-.124a10.309,10.309,0,0,1,1.509-.062c3.531,0,5.661,1.633,5.661,4.605,0,2.911-1.6,4.286-4.1,4.286Zm-291.1.186a1.346,1.346,0,0,0,0,.914c.595,0,1.57-.1,3.354-.1h3.975a1.016,1.016,0,0,0,.062-.905c-.656-.1-1.1-.16-1.5-.258-1-.248-1.225-.718-.852-1.872.816-2.44,3.478-9.858,4.6-12.99a.155.155,0,0,1,.16-.036C61.7,147.98,64.828,157,65.272,158.53a.584.584,0,0,1-.346.781,8.566,8.566,0,0,1-1.722.346,1.272,1.272,0,0,0,0,.905c.657-.036,2.6-.1,4.135-.1,1.4,0,3,.062,3.816.062.1-.089.186-.808.062-.905-2.254-.284-2.476-.435-3.381-2.537-1.091-2.591-4.57-12.458-5.191-14.268-.222-.594-.382-1.189-.506-1.659-.089,0-.408.026-1.03.026H60.073a13.141,13.141,0,0,1-.5,1.845c-.693,1.944-3.665,9.929-5.262,13.718-1.029,2.4-1.411,2.591-3.665,2.911v.089Zm30.812,1.384a10.148,10.148,0,0,0,8.234-4.108,10.46,10.46,0,0,0,1.908-6.5c0-5.1-3.23-9.769-9.61-9.769a10.732,10.732,0,0,0-8.359,3.975,10.034,10.034,0,0,0-1.943,6.042,10.884,10.884,0,0,0,2.689,7.507A9.435,9.435,0,0,0,81.461,161.13Zm1.188-1.384a6.976,6.976,0,0,1-3.913-1.065c-2.759-1.784-3.975-5.351-3.975-8.634,0-3.194,1.065-6.016,3.345-7.356A5.628,5.628,0,0,1,80.929,142a7.023,7.023,0,0,1,4.1,1.251c2.476,1.722,3.6,4.978,3.6,8.359,0,2.884-.692,5.475-2.635,7.045a5.254,5.254,0,0,1-3.346,1.091ZM93.984,142.1a8.622,8.622,0,0,1,2.005.373c.595.186.718.5.781,1.313.026.568.062,4.011.062,7.045,0,2.724-.036,5.386-.036,6.451-.062,1.437-.151,1.908-1.065,2.192-.435.124-.931.151-1.685.275a1.456,1.456,0,0,0,0,.914c.754,0,2.218-.1,4.2-.1h20.124a.871.871,0,0,1,.781.532,18.445,18.445,0,0,1,.692,4.88,1.6,1.6,0,0,0,1.091-.124,36.748,36.748,0,0,1,1.535-6.6c0-.036-.026-.186-.1-.222-.4.036-1.5.062-2.059.062-.2,0-.346-.249-.381-.373-.124-1.375-.124-5.226-.124-7.95,0-3.727,0-5.634.062-6.735.035-1.029.186-1.375.878-1.6a14.729,14.729,0,0,1,1.659-.338c.16-.133.124-.79.036-.914-.878,0-2.573.124-3.975.124-1.633,0-3.106-.089-3.825-.089a1.046,1.046,0,0,0-.026.878,6.8,6.8,0,0,1,1.81.373.964.964,0,0,1,.63.967c.027.594.062,5.164.062,7.7,0,4.445-.035,7.072-.035,7.826a.3.3,0,0,1-.213.222c-2.13.026-4.543,0-6.673,0a.6.6,0,0,1-.408-.506c-.062-1.19-.089-3.656-.089-8.039,0-2.289.027-6.265.027-6.823.036-.941.186-1.251.816-1.447a7.831,7.831,0,0,1,1.473-.275,1.258,1.258,0,0,0,.062-.878c-1,0-2.191.089-3.913.089h-3.825a1.2,1.2,0,0,0-.026.878,8.564,8.564,0,0,1,1.819.346c.621.186.683.559.746,1.375.035.568.062,3.913.062,6.947,0,2.724,0,6.859-.027,7.951a.491.491,0,0,1-.505.47c-3.691,0-6.353.036-6.575-.026-.124-.036-.186-.186-.213-.382-.062-1.091-.062-3.655-.062-8.074,0-2.28,0-6.318.026-6.885.036-.941.249-1.251.852-1.438.4-.1.967-.186,1.5-.284.151-.089.151-.781.026-.878-.931,0-2.192.1-3.877.1H94.046a1.234,1.234,0,0,0-.036.878l-.027-.186Zm29.45,17.649a1.17,1.17,0,0,0,0,.914c.6,0,1.571-.1,3.354-.1h4a1.446,1.446,0,0,0,.062-.905,10.58,10.58,0,0,1-1.5-.258c-.967-.248-1.03-.594-1-1.127a38.719,38.719,0,0,1,1.695-5.066c.027-.1.186-.284.311-.284.373-.027.594,0,2.6,0,1.411,0,2.5-.027,2.937-.027a.449.449,0,0,1,.284.213c.568,1.411,1.508,4.037,1.881,5.386a.582.582,0,0,1-.346.781,9.017,9.017,0,0,1-1.722.346,1.275,1.275,0,0,0,.036.905c.656-.027,2.564-.089,4.1-.089,1.4,0,3,.062,3.815.062.1-.124.187-.816.062-.905-2.254-.284-2.476-.443-3.381-2.537-1.091-2.6-4.57-12.52-5.191-14.3a16.884,16.884,0,0,1-.506-1.632c-.089,0-.408.036-1.03.036h-1.038a9.276,9.276,0,0,1-.532,1.784c-.683,2.005-3.629,9.982-5.227,13.771-1.029,2.414-1.411,2.627-3.665,2.911v.124Zm9.805-15.333c.5,1.34,1.686,4.818,2.316,6.761a.174.174,0,0,1-.1.249c-.311.026-1.348.026-2.094.026h-2.511c-.088-.026-.124-.088-.124-.213.532-1.659,1.819-5.2,2.351-6.761.027-.062.124-.036.16-.036v-.026Zm11.928,14.836a48.624,48.624,0,0,1,1,6.663c.088.062.967.036,1.029-.124a19.823,19.823,0,0,1,1.065-4.942.816.816,0,0,1,.568-.284h11.7a.846.846,0,0,1,.719.435,18.133,18.133,0,0,1,.656,4.951,1.741,1.741,0,0,0,1.1-.124,40.9,40.9,0,0,1,1.535-6.575c0-.1-.1-.222-.133-.222-.4.036-1.278.062-1.845.062-.213,0-.435-.284-.47-.373-.932-2.005-4.757-12.307-6.034-15.812a12.852,12.852,0,0,1-.533-1.624c-.133,0-.444.027-.878.027h-.879a18.948,18.948,0,0,1-.692,2.316c-1.748,4.854-5,13.744-5.6,14.845-.124.248-.373.595-.63.656a11.57,11.57,0,0,1-1.685.151v-.026Zm8.793-13.966c.594,1.348,4.88,12.964,4.977,13.558.036.124-.026.346-.124.346-1.535.088-8.172.062-9.512-.036a.243.243,0,0,1-.2-.311c.408-1.437,4.232-12.21,4.7-13.558A.152.152,0,0,1,153.961,145.283Zm20.41,14.339a4.423,4.423,0,0,1-2.254-.559,1.357,1.357,0,0,1-.595-1.127c-.089-1.322-.089-5.262-.089-7.232,0-.062.062-.186.151-.186a12.216,12.216,0,0,1,1.508-.062c3.567,0,5.413,1.65,5.413,4.782C178.506,157.963,177.095,159.622,174.371,159.622Zm-8.633.124a1.091,1.091,0,0,0,0,.914c2.316-.036,5.758.089,7.2.089a11.374,11.374,0,0,0,4.694-.781,5.714,5.714,0,0,0,3.824-5.412c0-2.7-1.757-5.3-6.327-5.3-1.375,0-2.688.1-3.567.133a.161.161,0,0,1-.124-.133c0-2.716.027-4.064.062-5.377,0-1.038.213-1.313.941-1.535a13.317,13.317,0,0,1,1.526-.248c.124-.133.16-.79,0-.914-.87,0-2.218.124-3.913.124-1.526,0-2.813-.089-3.816-.089a1.108,1.108,0,0,0,0,.905,14.59,14.59,0,0,1,1.624.248c.532.124.851.381.878,1.251.1,1.162.062,3.168.062,7.08,0,3.346,0,6.194.036,7.17-.1,1.091-.31,1.4-.976,1.6a17.951,17.951,0,0,1-2.032.275ZM274.758,92.8l.023-.009a15.183,15.183,0,0,0,1.56-.816,9.556,9.556,0,0,1,9.42,1A6.92,6.92,0,0,1,289,98.237a6.042,6.042,0,0,1-1.163,3.289,5.272,5.272,0,0,1-5.663,2.194,1.421,1.421,0,0,0,.1-.523c0-.03,0-.059,0-.088s0-.059,0-.089,0-.062,0-.093,0-.062,0-.093a1.488,1.488,0,1,0-2.975,0c0,.031,0,.062,0,.093s0,.062,0,.093,0,.059,0,.089,0,.058,0,.088a1.451,1.451,0,0,0,.821,1.3,6.434,6.434,0,0,0,8.753-1.852,7.062,7.062,0,0,0,1.394-4.29c0-.077,0-.155,0-.233.04-2.271-1.01-4.734-3.746-6.754A10.544,10.544,0,0,0,279.6,89.3a14.022,14.022,0,0,0,2.83-4.759,14.384,14.384,0,0,0,.819-5q0-.216,0-.433a15.66,15.66,0,0,0-1.455-6.775,11.237,11.237,0,0,0-14.907-5.506,8.437,8.437,0,0,0-4.9,7.913c0,.158,0,.318,0,.477a8.051,8.051,0,0,0,.769,3.661,6.264,6.264,0,0,0,3.572,3.238,6.432,6.432,0,0,0,4.858-.188A4.731,4.731,0,0,0,274,77.394c.007-.151.007-.3,0-.454a4.806,4.806,0,0,0-.438-2.249.636.636,0,0,0-.079-.13,1.488,1.488,0,0,0-2.847.8,1.466,1.466,0,0,0-.02.24,1.451,1.451,0,0,0,.018.229,1.42,1.42,0,0,0-.018.227,1.474,1.474,0,0,0,1.489,1.456,1.506,1.506,0,0,0,.556-.106,3.565,3.565,0,0,1-2,2.541,5.081,5.081,0,0,1-6.74-2.489,7.114,7.114,0,0,1-.638-2.5,7.014,7.014,0,0,1,4.14-5.9,10.089,10.089,0,0,1,7.619-.291,9.81,9.81,0,0,1,5.6,5.072,13.914,13.914,0,0,1,1.335,5.479,13.657,13.657,0,0,1-.744,4.043,13.082,13.082,0,0,1-5.466,6.865,12.34,12.34,0,0,0-2.446,1.433,12.561,12.561,0,0,0-5.019,10.222v.183a14.956,14.956,0,0,0,1.006,5.356,15.143,15.143,0,0,0,2.969,4.725c-6.472-4.772-14.979-14.017-18.025-33.723a40.083,40.083,0,0,1-.462-5.634A44.583,44.583,0,0,1,256.6,57.957a.6.6,0,0,0,.049-.132,46.221,46.221,0,0,1,15.3-20.784A15.806,15.806,0,0,1,283.1,34.5c4.634.761,6.677,3.748,7.044,6.148a4.076,4.076,0,0,1-2.38,3.217l-.071.029a1.421,1.421,0,0,0-.054-.377,1.442,1.442,0,0,0,.054-.395,1.459,1.459,0,0,0-.059-.413,1.49,1.49,0,0,0-1.405-1.906H286.2a1.486,1.486,0,0,0-1.313.791,1.994,1.994,0,0,0-.355.8,2.274,2.274,0,0,0-.007.866,2.237,2.237,0,0,0,0,.8,2.394,2.394,0,0,0,.892,2.264,2.5,2.5,0,0,0,1.58.538,3.244,3.244,0,0,0,1.266-.269,5.4,5.4,0,0,0,3.2-5.5,6.783,6.783,0,0,0,0-.838,6.968,6.968,0,0,0-.038-1.277c-.349-2.914-2.681-6.643-8.121-7.554-.16-.027-.318-.051-.476-.072,8.977-2.841,18.26-1.45,26.819,4.163a21.805,21.805,0,0,1,9.945,17.658,22.548,22.548,0,0,1-2.084,8.794,16.269,16.269,0,0,1-21.583,7.9,11.779,11.779,0,0,1-6.8-10.054,11.258,11.258,0,0,1,1.074-4.2,8.562,8.562,0,0,1,11.255-4.036,5.94,5.94,0,0,1,3.467,4.723,6.028,6.028,0,0,1-.523,1.86,4.286,4.286,0,0,1-4.141,2.47,1.457,1.457,0,0,0-.035-.313,1.486,1.486,0,1,0-2.9,0,1.466,1.466,0,0,0,0,.626,1.4,1.4,0,0,0-.033.3,1.45,1.45,0,0,0,.7,1.235.63.63,0,0,0,.195.137,5.609,5.609,0,0,0,7.375-2.643,7.006,7.006,0,0,0,.672-3.336c.011-.223.01-.447,0-.669a7.34,7.34,0,0,0-4.237-7.007,9.757,9.757,0,0,0-12.945,4.74,12.96,12.96,0,0,0-1.206,5.8q-.008.317,0,.633a12.766,12.766,0,0,0,7.548,11.914A17.713,17.713,0,0,0,318.67,63.7a22.936,22.936,0,0,0,2.208-10.191c0-.226,0-.452,0-.678a23.689,23.689,0,0,0-10.524-20.178c-11.44-7.663-24.673-7.813-36.3-.41q-1.3.825-2.529,1.751a19.38,19.38,0,0,0-4.152,3.492.651.651,0,0,0-.087.135,46.655,46.655,0,0,0-4.01,4.442c3.739-6.966,7.751-14.552,7.565-22.127q.013-.527,0-1.055a19.772,19.772,0,0,0-3.264-11.539,14.219,14.219,0,0,0-19.642-4.2A9.535,9.535,0,0,0,243.758,9.2a9.658,9.658,0,0,0-.2,2.609,9.424,9.424,0,0,0,0,1.133,9.194,9.194,0,0,0,1.53,5.642,6.659,6.659,0,0,0,9.081,1.9,4.433,4.433,0,0,0,2.045-4.281,4.471,4.471,0,0,0,0-1.1,4.536,4.536,0,0,0-.7-3.039,3.233,3.233,0,0,0-4-1.2,1.49,1.49,0,0,0-.526.294l0,0-.012.011-.011.01h0l-.011.011a1.489,1.489,0,0,0-.359,1.668,1.444,1.444,0,0,0-.117.571,1.459,1.459,0,0,0,.106.549,1.422,1.422,0,0,0-.106.541,1.49,1.49,0,0,0,2.979,0,1.408,1.408,0,0,0-.034-.308,1.95,1.95,0,0,1,1.026.776,3.171,3.171,0,0,1,.333.658,3.263,3.263,0,0,1-1.3,1.648,5.292,5.292,0,0,1-7.318-1.564,8.3,8.3,0,0,1-1.261-3.374q.042-.3.106-.6a8.124,8.124,0,0,1,3.618-5.142A13.108,13.108,0,0,1,266.5,10.369a17.939,17.939,0,0,1,3.069,9.1c-.356,6.89-4.011,13.845-7.588,20.65-2.977,5.663-5.789,11.015-6.577,16.1a47.493,47.493,0,0,0-2.889,16.384v.325a39.725,39.725,0,0,0,.475,6.558c1.76,11.152,5.314,18.964,9.272,24.518a13.438,13.438,0,0,0-9.089-2.385,11.37,11.37,0,0,0-8.639,5.854,8.359,8.359,0,0,0-.964,3.966v.1a8.1,8.1,0,0,0,.389,2.484,8.222,8.222,0,0,0,4.127,4.84,6.226,6.226,0,0,0,4.682.413,6.073,6.073,0,0,0,3.6-2.95,4.335,4.335,0,0,0,.515-2.064v-.076h0a4.533,4.533,0,0,0-2.429-4.057,3.389,3.389,0,0,0-4.574,1.433,2.564,2.564,0,0,0-.295,1.235v.083A2.521,2.521,0,0,0,250.707,115a1.5,1.5,0,0,0,1.008.387,1.475,1.475,0,0,0,1.49-1.458v-.134a1.488,1.488,0,0,0-2.285-1.258,1.252,1.252,0,0,1,.092-.219,2.14,2.14,0,0,1,2.855-.873,3.179,3.179,0,0,1,1.6,1.872,3.132,3.132,0,0,1,.148.89,3.251,3.251,0,0,1-.371,1.443,4.863,4.863,0,0,1-6.565,2.052,7.143,7.143,0,0,1-3.826-6.249,6.836,6.836,0,0,1,.812-3.131,10.094,10.094,0,0,1,7.663-5.072c4.16-.5,8.48,1.468,12.169,5.535,8,8.824,16.088,11.244,23.083,11.512h0l.349.011h0l.347.008.345,0h0l.343,0h.651l.081,0h0l.081,0h.081l.08,0h0l.081,0h0l.08,0h0l.16,0h0l.081,0h0l.058,0c1.232-.045,2.422-.142,3.564-.267a.635.635,0,0,0,.222-.067c8.073-.831,18.951-5.017,29.881-18.566,1.234-1.531,2.47-2.912,3.7-4.162a15.969,15.969,0,0,0-1.506,6.883v.146a16.256,16.256,0,0,0,.11,1.993,9.788,9.788,0,0,0,10.838,8.513,7.127,7.127,0,0,0,6.338-7.1V107.5a7.478,7.478,0,0,0-.05-.9,5.374,5.374,0,0,0-5.921-4.744,4.284,4.284,0,0,0-3.894,3.757,1.493,1.493,0,0,0-.052.39l0,.078,0,.075,0,.071v.005l0,.068a1.487,1.487,0,0,0,2.974,0l0-.073,0-.071,0-.075,0-.077a1.49,1.49,0,0,0-1.034-1.417,3.391,3.391,0,0,1,2.153-1.106,4.08,4.08,0,0,1,4.507,3.552q.033.279.039.556v.01a5.947,5.947,0,0,1-5.209,5.8,8.562,8.562,0,0,1-9.424-7.576,15.852,15.852,0,0,1-.1-1.583,15.58,15.58,0,0,1,5.154-11.09,22.759,22.759,0,0,1,2.322-1.932,33.833,33.833,0,0,1,9.33-4.373,28.739,28.739,0,0,1,9.117-.959c.369.042.574.082.591.085a.635.635,0,0,0,.321-.012c.3.029.6.064.9.1,9.685,1.314,14.529,5.939,16.889,9.585q.217.335.417.679c-.247-.264-.51-.523-.792-.776-3.291-2.952-6.8-2.548-8.808-1.307a4.7,4.7,0,0,0-2.388,4.081q0,.115,0,.229a3.988,3.988,0,0,0,.151,1.2,2.226,2.226,0,0,0,1.668,1.678,2.1,2.1,0,0,0,2.025-.647,1.646,1.646,0,0,0,.389-.86,1.43,1.43,0,0,0,.046-.36c0-.036,0-.073,0-.108s0-.071,0-.107,0-.075,0-.112,0-.074,0-.112a1.489,1.489,0,0,0-2.943-.323,2.967,2.967,0,0,1-.055-.376,3.416,3.416,0,0,1,1.777-2.582c1.632-.99,4.519-1.285,7.286,1.148a12.142,12.142,0,0,1,3.908,9.174,13.186,13.186,0,0,1-.16,2.007l0,.01a16.15,16.15,0,0,1-.436,1.71A12.569,12.569,0,0,1,359.5,118.1a8.691,8.691,0,0,1-6.075-8.179,8.325,8.325,0,0,1,.4-2.43,5.972,5.972,0,0,1,7.447-3.805,3.963,3.963,0,0,1,2.35,1.929,3.858,3.858,0,0,1,.454,1.682,4.028,4.028,0,0,1-.182,1.061,2.646,2.646,0,0,1-3.313,1.729,1.657,1.657,0,0,1-.582-.32,1.466,1.466,0,0,0,1.137-1.416l0-.061,0-.062,0-.066,0-.066a1.487,1.487,0,0,0-2.973-.044,2.882,2.882,0,0,0-.032.488v.012c0,.043,0,.085,0,.127a2.9,2.9,0,0,0,2.067,2.813,3.986,3.986,0,0,0,2.987-.259,3.832,3.832,0,0,0,1.925-2.251,5.092,5.092,0,0,0,.245-1.623v-.13a5.29,5.29,0,0,0-3.7-5.11,7.225,7.225,0,0,0-9.049,4.719,9.907,9.907,0,0,0-.457,3.033v.1a9.786,9.786,0,0,0,6.97,9.369,14.045,14.045,0,0,0,4.138.625,13.823,13.823,0,0,0,13.2-9.484,17.286,17.286,0,0,0,.813-5.3v-.154a19.626,19.626,0,0,0-3.036-10.589c-2.5-3.953-7.621-8.961-17.789-10.369q-.843-.117-1.7-.176c-1.81-.259-7.555-.665-14.879,2.921a28.733,28.733,0,0,0-2.936,1.614A49.3,49.3,0,0,0,324.062,100.2a67.042,67.042,0,0,1-6.253,6.922.632.632,0,0,0-.248.158c-5.5,5.644-17.422,8.215-22.559,3.212a6.676,6.676,0,0,1-1.913-4.554v0c0-.055,0-.11.006-.166a5.581,5.581,0,0,1,2.167-4.19,2.869,2.869,0,0,1,3.582-.026,2.347,2.347,0,0,1,1.046,1.535,1.487,1.487,0,0,0-2.319,1.231c0,.029,0,.057,0,.086s0,.056,0,.084,0,.055,0,.082,0,.054,0,.08a1.472,1.472,0,0,0,1.486,1.456,1.494,1.494,0,0,0,1.239-.651,2.934,2.934,0,0,0,.89-2.173c0-.059,0-.118,0-.178v0c0-.088,0-.175,0-.264a3.61,3.61,0,0,0-1.643-2.751,4.092,4.092,0,0,0-5.07.092,7,7,0,0,0-2.645,5.216c-.008.159-.011.319-.01.479v.156a7.651,7.651,0,0,0,2.294,5.56c2.182,2.081,5.353,2.985,8.77,2.985a23.114,23.114,0,0,0,6.759-1.069c-9.21,5.675-17.292,5.775-22.188,4.99-9.225-1.479-15.252-7.146-16.95-11.787a14.383,14.383,0,0,1-.919-4.708,11,11,0,0,1,4.5-8.749q.331-.243.672-.458Zm-173.977,0-.027-.011a15.109,15.109,0,0,1-1.561-.817,9.56,9.56,0,0,0-9.419,1,6.919,6.919,0,0,0-3.237,5.261,6.049,6.049,0,0,0,1.162,3.289,5.273,5.273,0,0,0,5.663,2.194,1.421,1.421,0,0,1-.1-.523c0-.03,0-.059,0-.088s0-.059,0-.089,0-.062,0-.093,0-.062,0-.093a1.489,1.489,0,1,1,2.977,0c0,.031,0,.062,0,.093s0,.062,0,.093,0,.059,0,.089,0,.058,0,.088a1.454,1.454,0,0,1-.825,1.3,6.431,6.431,0,0,1-8.748-1.854,7.059,7.059,0,0,1-1.4-4.295c0-.076,0-.154,0-.231-.039-2.27,1.01-4.733,3.745-6.752A10.545,10.545,0,0,1,95.93,89.3,14.019,14.019,0,0,1,93.1,84.537a14.4,14.4,0,0,1-.819-5q0-.216,0-.433a15.653,15.653,0,0,1,1.455-6.775,11.239,11.239,0,0,1,14.91-5.506,8.442,8.442,0,0,1,4.9,7.917q.007.239,0,.479a8.049,8.049,0,0,1-.766,3.655,6.291,6.291,0,0,1-3.574,3.238,6.442,6.442,0,0,1-4.862-.188,4.734,4.734,0,0,1-2.807-4.527c-.007-.151-.007-.3,0-.454a4.805,4.805,0,0,1,.438-2.249.623.623,0,0,1,.081-.131,1.488,1.488,0,0,1,2.846.8,1.467,1.467,0,0,1,0,.469,1.431,1.431,0,0,1,.018.227,1.473,1.473,0,0,1-1.487,1.456,1.508,1.508,0,0,1-.557-.106,3.564,3.564,0,0,0,2,2.541,5.082,5.082,0,0,0,6.74-2.489,7.117,7.117,0,0,0,.638-2.5,7.014,7.014,0,0,0-4.138-5.9,10.092,10.092,0,0,0-7.62-.291,9.812,9.812,0,0,0-5.6,5.072,13.923,13.923,0,0,0-1.333,5.477,13.679,13.679,0,0,0,.743,4.044,13.09,13.09,0,0,0,5.464,6.864,12.335,12.335,0,0,1,2.448,1.434,12.553,12.553,0,0,1,5.021,10.214v.187a14.976,14.976,0,0,1-1.006,5.359,15.161,15.161,0,0,1-2.972,4.726c6.472-4.772,14.98-14.016,18.027-33.724a40.173,40.173,0,0,0,.461-5.635,44.574,44.574,0,0,0-2.809-14.831.626.626,0,0,1-.051-.134,46.215,46.215,0,0,0-15.3-20.789A15.8,15.8,0,0,0,92.44,34.5c-4.635.761-6.676,3.749-7.044,6.149a4.076,4.076,0,0,0,2.38,3.216l.071.029a1.445,1.445,0,0,1,.054-.377,1.465,1.465,0,0,1-.054-.395,1.446,1.446,0,0,1,.06-.414,1.469,1.469,0,0,1-.06-.417A1.487,1.487,0,0,1,89.313,40.8h.019a1.487,1.487,0,0,1,1.317.8,1.991,1.991,0,0,1,.353.8,2.276,2.276,0,0,1,.007.864,2.236,2.236,0,0,1,0,.8,2.394,2.394,0,0,1-.894,2.266,2.5,2.5,0,0,1-1.578.538,3.238,3.238,0,0,1-1.265-.269,5.408,5.408,0,0,1-3.208-5.508,6.7,6.7,0,0,1,0-.839,6.963,6.963,0,0,1,.037-1.273c.349-2.914,2.686-6.643,8.124-7.554.159-.027.317-.051.475-.072-8.977-2.841-18.258-1.45-26.818,4.163a21.806,21.806,0,0,0-9.946,17.66,22.556,22.556,0,0,0,2.084,8.793,16.27,16.27,0,0,0,21.583,7.9,11.773,11.773,0,0,0,6.8-10.049,11.258,11.258,0,0,0-1.074-4.2,8.56,8.56,0,0,0-11.252-4.036A5.939,5.939,0,0,0,70.611,56.3a6.033,6.033,0,0,0,.524,1.86,4.281,4.281,0,0,0,4.141,2.47,1.451,1.451,0,0,1,.036-.313,1.486,1.486,0,1,1,2.9,0,1.466,1.466,0,0,1,0,.626,1.4,1.4,0,0,1,.033.3,1.451,1.451,0,0,1-.707,1.24.642.642,0,0,1-.191.133,5.606,5.606,0,0,1-7.374-2.643,7.012,7.012,0,0,1-.672-3.336c-.01-.223-.01-.447,0-.669a7.34,7.34,0,0,1,4.236-7.007,9.756,9.756,0,0,1,12.944,4.74,12.958,12.958,0,0,1,1.206,5.8q.009.318,0,.635a12.761,12.761,0,0,1-7.548,11.911A17.71,17.71,0,0,1,56.867,63.7a22.944,22.944,0,0,1-2.208-10.2q0-.338,0-.676A23.687,23.687,0,0,1,65.184,32.658c11.438-7.663,24.673-7.813,36.3-.41q1.3.829,2.541,1.759a19.377,19.377,0,0,1,4.139,3.483.648.648,0,0,1,.085.132,46.544,46.544,0,0,1,4.008,4.439c-3.738-6.965-7.748-14.551-7.561-22.125q-.012-.526,0-1.052a19.77,19.77,0,0,1,3.265-11.538,14.218,14.218,0,0,1,19.641-4.2A9.535,9.535,0,0,1,131.777,9.2a9.662,9.662,0,0,1,.2,2.609,9.437,9.437,0,0,1,0,1.133,9.191,9.191,0,0,1-1.53,5.642,6.659,6.659,0,0,1-9.082,1.9,4.435,4.435,0,0,1-2.044-4.282,4.464,4.464,0,0,1,0-1.1,4.537,4.537,0,0,1,.7-3.038,3.236,3.236,0,0,1,4-1.2,1.482,1.482,0,0,1,.513.284.553.553,0,0,1,.063.057h0a1.491,1.491,0,0,1,.344,1.656,1.463,1.463,0,0,1,.01,1.12,1.423,1.423,0,0,1,.106.541,1.488,1.488,0,0,1-2.976,0,1.42,1.42,0,0,1,.034-.309,1.948,1.948,0,0,0-1.029.777,3.2,3.2,0,0,0-.333.658,3.266,3.266,0,0,0,1.3,1.648,5.291,5.291,0,0,0,7.317-1.564,8.293,8.293,0,0,0,1.263-3.376q-.042-.3-.106-.6a8.124,8.124,0,0,0-3.619-5.142,13.11,13.11,0,0,0-17.879,3.744,17.932,17.932,0,0,0-3.068,9.1c.356,6.89,4.011,13.846,7.588,20.65,2.976,5.664,5.791,11.016,6.58,16.1a47.52,47.52,0,0,1,2.887,16.358v.339a39.782,39.782,0,0,1-.476,6.566c-1.76,11.153-5.315,18.966-9.274,24.519a13.439,13.439,0,0,1,9.093-2.386,11.378,11.378,0,0,1,8.64,5.854,8.375,8.375,0,0,1,.962,3.966v.1a8.111,8.111,0,0,1-.388,2.484,8.214,8.214,0,0,1-4.131,4.84,6.214,6.214,0,0,1-4.677.413,6.071,6.071,0,0,1-3.607-2.95,4.334,4.334,0,0,1-.515-2.064v-.076h0a4.533,4.533,0,0,1,2.428-4.057,3.392,3.392,0,0,1,4.576,1.433,2.569,2.569,0,0,1,.294,1.235v.079a2.525,2.525,0,0,1-1.12,2.127,1.5,1.5,0,0,1-1.008.385,1.475,1.475,0,0,1-1.489-1.458v-.134a1.488,1.488,0,0,1,2.284-1.259,1.3,1.3,0,0,0-.091-.218,2.14,2.14,0,0,0-2.855-.873,3.177,3.177,0,0,0-1.744,2.765,3.22,3.22,0,0,0,.373,1.439,4.861,4.861,0,0,0,6.563,2.052,7.144,7.144,0,0,0,3.827-6.248,6.839,6.839,0,0,0-.812-3.133,10.1,10.1,0,0,0-7.665-5.072c-4.157-.5-8.48,1.468-12.169,5.535-8,8.824-16.087,11.244-23.082,11.512h0l-.349.011h0l-.347.008-.345,0h0l-.343,0h-.653l-.081,0h0l-.081,0h-.081l-.081,0h0l-.081,0h0l-.081,0h0l-.161,0h0l-.08,0h0l-.059,0c-1.233-.045-2.422-.142-3.562-.267a.634.634,0,0,1-.222-.067c-8.073-.83-18.95-5.016-29.882-18.566-1.235-1.532-2.471-2.915-3.7-4.164a15.979,15.979,0,0,1,1.507,6.895v.127a16.422,16.422,0,0,1-.11,2,9.788,9.788,0,0,1-10.838,8.514,7.124,7.124,0,0,1-6.337-7.092v-.147a7.463,7.463,0,0,1,.05-.937,5.373,5.373,0,0,1,5.921-4.744,4.283,4.283,0,0,1,3.9,3.765,1.508,1.508,0,0,1,.05.382l0,.075h0l0,.076,0,.071,0,.073a1.487,1.487,0,0,1-2.973,0l0-.073,0-.071,0-.075,0-.077a1.49,1.49,0,0,1,1.034-1.417,3.4,3.4,0,0,0-2.154-1.106,4.079,4.079,0,0,0-4.506,3.552c-.023.187-.036.372-.04.556h0v.01a5.949,5.949,0,0,0,5.209,5.8A8.563,8.563,0,0,0,46.9,105.81c.061-.541.093-1.069.1-1.583a15.575,15.575,0,0,0-5.154-11.09A22.78,22.78,0,0,0,39.52,91.2a33.845,33.845,0,0,0-9.307-4.362,28.762,28.762,0,0,0-9.133-.964c-.37.042-.576.082-.593.085a.633.633,0,0,1-.32-.012q-.452.044-.9.1C9.584,87.364,4.742,91.989,2.381,95.635q-.216.335-.416.678.371-.4.792-.775c3.291-2.952,6.8-2.548,8.809-1.307a4.7,4.7,0,0,1,2.387,4.083c0,.077,0,.154,0,.232a4.006,4.006,0,0,1-.151,1.2,2.227,2.227,0,0,1-1.669,1.678,2.1,2.1,0,0,1-2.025-.647,1.651,1.651,0,0,1-.391-.885,1.438,1.438,0,0,1-.039-.335c0-.037,0-.073,0-.109s0-.071,0-.106,0-.075,0-.113,0-.074,0-.111a1.486,1.486,0,0,1,2.938-.319,2.894,2.894,0,0,0,.057-.383,3.414,3.414,0,0,0-1.779-2.579c-1.63-.99-4.519-1.284-7.285,1.148A12.15,12.15,0,0,0-.3,106.151a13.391,13.391,0,0,0,.153,1.972,16.086,16.086,0,0,0,.445,1.76A12.567,12.567,0,0,0,16.036,118.1a8.692,8.692,0,0,0,6.077-8.176,8.309,8.309,0,0,0-.4-2.433,5.973,5.973,0,0,0-7.447-3.805,3.967,3.967,0,0,0-2.351,1.929,3.859,3.859,0,0,0-.454,1.679,4.036,4.036,0,0,0,.184,1.064,2.644,2.644,0,0,0,3.313,1.729,1.658,1.658,0,0,0,.582-.32,1.464,1.464,0,0,1-1.136-1.416l0-.061,0-.062,0-.066,0-.066a1.487,1.487,0,0,1,2.974-.017,2.932,2.932,0,0,1,.028.469v.007c0,.042,0,.083,0,.124a2.9,2.9,0,0,1-2.063,2.812,3.986,3.986,0,0,1-2.988-.259,3.836,3.836,0,0,1-1.925-2.251,5.09,5.09,0,0,1-.245-1.623v-.13a5.295,5.295,0,0,1,3.7-5.11,7.221,7.221,0,0,1,9.045,4.719,9.911,9.911,0,0,1,.458,3.033v.1a9.781,9.781,0,0,1-6.969,9.369,14.051,14.051,0,0,1-4.137.625,13.826,13.826,0,0,1-13.2-9.484,16.8,16.8,0,0,1-.456-1.736l-.005-.023-.012-.063a17.619,17.619,0,0,1-.341-3.47v-.237A19.631,19.631,0,0,1,1.3,94.432c2.5-3.953,7.622-8.961,17.792-10.369q.843-.117,1.7-.176c1.808-.259,7.54-.664,14.85,2.908a28.621,28.621,0,0,1,3,1.653A49.344,49.344,0,0,1,51.47,100.2a67.191,67.191,0,0,0,6.253,6.921.629.629,0,0,1,.253.159c5.5,5.644,17.421,8.215,22.557,3.212a6.676,6.676,0,0,0,1.914-4.554v0c0-.055,0-.11-.006-.166a5.585,5.585,0,0,0-2.167-4.19,2.867,2.867,0,0,0-3.58-.026,2.338,2.338,0,0,0-1.048,1.535,1.488,1.488,0,0,1,2.321,1.232c0,.029,0,.057,0,.086s0,.056,0,.084,0,.055,0,.082,0,.054,0,.081a1.473,1.473,0,0,1-1.488,1.456,1.5,1.5,0,0,1-1.241-.653,2.941,2.941,0,0,1-.888-2.179c0-.057,0-.115,0-.172v0h0c0-.086,0-.173,0-.26a3.611,3.611,0,0,1,1.642-2.751,4.1,4.1,0,0,1,5.072.092,7.017,7.017,0,0,1,2.646,5.216c.008.156.011.311.009.467v.022h0v.129a7.666,7.666,0,0,1-2.3,5.578c-2.182,2.081-5.352,2.985-8.772,2.985a23.121,23.121,0,0,1-6.758-1.069c9.21,5.675,17.291,5.775,22.187,4.99,9.226-1.479,15.255-7.146,16.95-11.787a14.383,14.383,0,0,0,.919-4.709,11,11,0,0,0-4.5-8.747q-.33-.242-.669-.456Zm76.43-75.655a1.628,1.628,0,1,1,1.284,0V31.285h2.011V13.88a1.628,1.628,0,1,1,1.283,0V31.285h2V10.373a1.627,1.627,0,1,1,1.283,0V31.285h2.007V6.866a1.627,1.627,0,1,1,1.283,0v24.42h2.013V10.373a1.627,1.627,0,1,1,1.283,0V31.285h2V13.88a1.627,1.627,0,1,1,1.283,0V31.285h2.011V17.145a1.627,1.627,0,1,1,1.283,0V31.285h2.848c-.252-.692-.5-1.378-.572-1.6a14.65,14.65,0,0,1,.123-10.795,9.133,9.133,0,0,1,8.652-5.8c2.97.105,5.372,1.355,6.623,4.171a7.114,7.114,0,0,1-.764,7.8c-3.224,4.028-8.241,2.876-11.089-.94a5.258,5.258,0,0,0,.008,3.025c.251,1.164.712,2.282,1.055,3.428a6.045,6.045,0,0,0,.31.7h4.632a1.626,1.626,0,1,1-.006,1.283H206.1c.3.563.574,1.055.658,1.2a92.706,92.706,0,0,0,9.511,12.628C221.7,52.8,227.218,59.13,232.519,65.639a62.344,62.344,0,0,1,9.516,15.629A28.449,28.449,0,0,1,244.4,91.579c.155,8.442-3.533,14.771-11.051,18.512-8.675,4.317-17.349,4.02-25.645-1.2a19.994,19.994,0,0,1-7.476-8.834c-.108-.234-.227-.463-.428-.872a65.468,65.468,0,0,0-.1,7.373c0,.5.821.849.9.87,2.553.637,2.759.873,3,3.5.985.173,2.009.292,3,.545a9.271,9.271,0,0,1,2.423.927,1.861,1.861,0,0,1,.73,1.311c.093,1.438.034,2.885.034,4.372H165.808c0-1.6-.08-3.185.052-4.751a1.814,1.814,0,0,1,1.093-1.168c1.3-.45,2.67-.724,4.014-1.053.315-.077.645-.1,1.075-.163a11.227,11.227,0,0,0-.008-1.218,1.4,1.4,0,0,1,.933-1.561c.749-.316,1.547-.519,2.3-.83.241-.1.573-.385.577-.589.036-2.407.016-4.816.009-7.225,0-.043-.048-.087-.123-.213-.106.2-.2.343-.269.5a21.431,21.431,0,0,1-15.876,12.556,25.026,25.026,0,0,1-20.011-3.83,18.883,18.883,0,0,1-8.235-13.243c-.075-.481-.138-.965-.207-1.447v-3.12c.149-.965.272-1.934.452-2.893,1.1-5.88,3.812-11.061,7.033-16.008,4.147-6.367,9.125-12.081,14.055-17.834q6.434-7.506,12.708-15.145a64.11,64.11,0,0,0,3.6-5.37c.056-.085.25-.463.472-.907h-3.439a1.628,1.628,0,1,1-.006-1.283h4.079c.108-.221.185-.381.2-.423.783-1.7,1.825-4.805,1.268-6.647a17.53,17.53,0,0,1-1.76,1.83,6.4,6.4,0,0,1-7.15.778,6.325,6.325,0,0,1-3.728-6.074,7.285,7.285,0,0,1,8.265-7.617c4.324.436,6.93,3.058,8.229,7.071a15.355,15.355,0,0,1-.534,10.032c-.033.094-.192.532-.383,1.048h2.71V17.145Zm9.872,15.424v42.51h-2.007V32.569Zm1.283,42.51V32.569h2.013v42.51Zm-4.574,0V32.569h-2v42.51Zm-3.286,0V32.569H178.5v42.51Zm-3.3,0V32.569h-3.192a67.725,67.725,0,0,1-3.084,6.67,199.586,199.586,0,0,1-11.464,18.426c-3.8,5.7-7.66,11.373-10.652,17.565-2.492,5.158-4.431,10.46-3.763,16.35a12.989,12.989,0,0,0,3.669,8.115c3.245,3.186,7.233,4.139,11.628,3.532a15.219,15.219,0,0,0,13.479-15.414c.005-.6-.11-1.6-.537-1.792s-1.2.385-1.657.75a13.776,13.776,0,0,0-3.879,5.114,8.407,8.407,0,0,0-1.026,5.441,1.778,1.778,0,0,1-.086.8c-.4,1.471-1.6,2.132-3.491,1.95a2.812,2.812,0,0,1-2.391-4.213c.81-1.576,1.655-3.14,2.576-4.654a26.75,26.75,0,0,1,6.516-7.73c1.778-1.344,3.678-2.324,6.021-.944,0-.29-.009-1.19-.01-1.961a2.8,2.8,0,0,1-2.111-2.707h0a2.8,2.8,0,0,1,2.791-2.791h.663Zm14.452,0V32.569h2v42.51Zm3.286,0V32.569h2.011v42.51Zm3.295,0V32.569h3.317c.085.23.144.389.159.425,4,9.8,10.21,18.284,15.971,27.038a139.8,139.8,0,0,1,8.963,14.959,39.985,39.985,0,0,1,3.588,10.059,18.543,18.543,0,0,1-.461,9.861,11.887,11.887,0,0,1-10.951,8.4,15.263,15.263,0,0,1-14.548-6.826,15.015,15.015,0,0,1-2.545-8.251c-.019-.559,0-1.822.51-2.11.285-.16.954.089,1.3.357a14.144,14.144,0,0,1,5.257,8.344,22.366,22.366,0,0,1,.062,2.339,4.187,4.187,0,0,0,.494,1.84c.81,1.209,2.12,1.281,3.393,1.03a2.64,2.64,0,0,0,2.311-2.046,3.211,3.211,0,0,0-.176-1.888,39.24,39.24,0,0,0-7.212-10.876,18.26,18.26,0,0,0-3.2-2.533c-1.723-1.083-2.848-1.067-4.772-.184l0-2.112a2.8,2.8,0,0,0,1.6-2.523h0a2.8,2.8,0,0,0-2.791-2.791Zm-29.8-58.438c.435,4.614-1.7,6.7-6.422,6.467a16.9,16.9,0,0,0,1.624,1.321,3.627,3.627,0,0,0,5.681-2.075,6.826,6.826,0,0,0-.534-5.24A4.372,4.372,0,0,0,168.441,16.641Zm-1.853-1.085A4.9,4.9,0,0,0,161.454,21a6.791,6.791,0,0,1,5.134-5.442ZM208.788,25a4.5,4.5,0,0,0,4.7-2.057,6.369,6.369,0,0,1-5.084-1.275c-1.592-1.321-1.641-3.083-1.213-5.032a6.245,6.245,0,0,0-1.152,4.575A4.092,4.092,0,0,0,208.788,25Zm5.392-3.8c.08-3.432-2.005-5.709-4.978-5.62A6.919,6.919,0,0,1,214.18,21.2ZM138.6,83.616A38.874,38.874,0,0,1,143.5,72.248a146.336,146.336,0,0,1,13.56-18.389c.982-1.184,2.834-3.617,2.825-3.607-.745.8-1.5,1.593-2.228,2.4a157.181,157.181,0,0,0-13.053,15.9c-2.908,4.216-5.515,8.592-6.632,13.675a12.747,12.747,0,0,0-.072,6.1c.217-1.482.356-3.119.708-4.71ZM241,85.809c-.077-.282-.163-.561-.245-.843l-.195.039q-1.008,5.713-2.015,11.428l-.2-.032q.269-1.967.537-3.933l-.3-.068-2.06,6.064c.074-.549.137-1.023.2-1.5l-.168-.074c-.67,1.138-1.34,2.276-1.969,3.347.005.014-.039-.1-.1-.261-.171.2-.325.378-.48.556a18.408,18.408,0,0,1-14.736,6.792,22.616,22.616,0,0,1-10.523-2.98c-1.453-.793-2.832-1.722-4.342-2.648a21.862,21.862,0,0,0,23.5,7.8c5.433-1.632,9.678-4.759,12.184-9.95a19.066,19.066,0,0,0,1.125-12.875c-.066-.292-.143-.581-.222-.869ZM143.409,74.268a22.065,22.065,0,0,0-2.558,10.791,11.415,11.415,0,0,0,1.01,4.379,27.007,27.007,0,0,1,1.969-10.3,70.461,70.461,0,0,1,7.541-13.849c3.833-5.751,7.735-11.457,11.607-17.183-.062-.063-7.111,8.357-10.429,12.5a72.483,72.483,0,0,0-9.14,13.666ZM233.737,91.6c-.792,4.108-2.055,7.991-5.354,10.839s-7.3,3.6-11.515,3.635C229.339,107.621,233.992,99.16,233.737,91.6Zm.006-16.371c2.16,4.146,3.8,8.453,3.826,13.449a14.666,14.666,0,0,0-.431-8.329,45.658,45.658,0,0,0-6.659-12.517,176.372,176.372,0,0,0-13.522-16.257c-.416-.46-.847-.907-1.272-1.36,2.336,3.048,4.785,5.984,7.17,8.971A100.208,100.208,0,0,1,233.743,75.232Zm-.026,14.212a.6.6,0,0,0,.189-.271,16.486,16.486,0,0,0,.069-10.21,35.053,35.053,0,0,0-5.737-11.329c-3.687-4.948-7.585-9.74-11.405-14.589-1.345-1.707-2.729-3.385-4.1-5.074-.031.02-.062.041-.092.061.536.839,1.056,1.686,1.61,2.513,4,5.992,8.078,11.94,12.006,17.982a49.855,49.855,0,0,1,6.431,13.454A25.78,25.78,0,0,1,233.717,89.444ZM212.71,97.5,211.1,94.42V97.7C212.023,98.033,212.264,97.981,212.71,97.5Zm-48.233.179V94.421l-1.625,3.118A1.206,1.206,0,0,0,164.476,97.681Zm3.817,17.932h38.985v-1.367a178.409,178.409,0,0,1-38.985-.1Zm-9.552-9.546c-10.654-.652-14.507-3.958-16.9-14.458C141.525,99.672,146.871,107.69,158.74,106.067Zm5.731-.619c-5.178,2.261-10.478,2.68-15.8.41a19.7,19.7,0,0,1-7.57-5.877c-.073.155-.134.283-.108.23l-1.977-3.3-.154.06c.056.485.111.97.156,1.363l-2.054-5.956-.279.076q.274,2,.548,4l-.194.029q-1.016-5.755-2.031-11.509h-.17c-.054.142-.119.281-.159.427a22.234,22.234,0,0,0-.75,8.828,17.1,17.1,0,0,0,4.855,10.068,21.6,21.6,0,0,0,32.294-2.543,5.663,5.663,0,0,0-.688.39,64.634,64.634,0,0,1-5.917,3.308Zm32.621-23.333H178.5v23.309h18.6ZM196.7,105H178.945V82.545H196.7ZM195.121,84.08H180.5v19.347h14.617ZM193.334,101.7l-11.14.009.024-15.862h11.116V101.7Zm-9.89-13.11c-.388,1.528,1.014,2.52,1.36,3.609a12.362,12.362,0,0,1-1.378-1.491v9.976h4.421l-1.858-2.921a30.756,30.756,0,0,1,2.416,2.558c.15.169.37.38.565.388,1.058.038,3.258.018,3.258.018s.019-5.566,0-8.193c0-.26-2.214-3.026-2.176-3.064l2.129,1.974v-4.7H189.6s.606,1.1.871,1.578a.616.616,0,0,1-.49-.215c-1.174-1.506-4.8-1.372-6.633-1.372,0,0,2.223,3.835,3.165,5.776Zm18.288,20.681c.017.24.021.989.007,1.294h-27.86v-1.3a90.33,90.33,0,0,1,27.854,0Zm6.24,4.183v2.821H167.638v-2.831c3.461-1.542,36.755-1.542,40.334.01Zm-10.1-32.327s.03,16.517.065,24.288c0,.849-.249,1.042-1.061,1.038q-9.112-.051-18.223,0c-.784,0-1.017-.2-1.014-1,.03-7.771,0-24.325,0-24.325Zm-27.67,23.452a19.965,19.965,0,0,1-11.4,6.159,23.882,23.882,0,0,1-16.268-2.452,17.473,17.473,0,0,1-9.224-12.2,22.508,22.508,0,0,1,.985-11.7,55.153,55.153,0,0,1,7.99-14.774c4.091-5.727,8.753-10.988,13.351-16.3,3.184-3.682,6.3-7.423,9.455-11.129.378-.443.8-1.119,1.463-.706s.384,1.171.076,1.7c-1.362,2.36-2.661,4.77-4.2,7.014-4.415,6.447-8.883,12.857-12.776,19.641a53.444,53.444,0,0,0-5.579,12.787c-1.2,4.5-1.477,9.015.248,13.431a13.46,13.46,0,0,0,12.293,9.008c7.218.535,12.961-2.283,16.762-8.573a16.362,16.362,0,0,0,2.21-9.268,4.951,4.951,0,0,0-.482-1.8,2.059,2.059,0,0,0-2.523-1.144c-.421.1-.707.346-.875,0,1.138-.408,2.723-1.316,3.412.284a7,7,0,0,1,.658,2.255C176.193,93.441,174.8,99.541,170.205,104.582Zm.443-86.765c-.076,1.211-.128,2.333-.224,3.451a4.745,4.745,0,0,1-5.928,4.357,5.014,5.014,0,0,1-3.765-5.707c.585-3.159,2.131-4.734,5.337-5,2.44-.2,5.848.879,6.373,4.563.045.316.154.888-.209.963-.513-.848-1.026-1.7-1.585-2.625Zm-2.993,70.4c-.806,1.75-1.738,3.588-2.408,5.518a12.552,12.552,0,0,0-.3,3.534c-.023.572-.195,1.008-.785,1.031a3.533,3.533,0,0,1-1.5-.238.84.84,0,0,1-.375-1.254,46.535,46.535,0,0,1,5.32-8.6C167.964,87.781,167.686,88.148,167.656,88.213Zm44.967,7.333c.21.413.455.809.652,1.227a.9.9,0,0,1-.553,1.376,2.466,2.466,0,0,1-1.422.1,1.174,1.174,0,0,1-.626-.95,9.154,9.154,0,0,0-.821-5.1,40.828,40.828,0,0,0-1.943-3.675c-.123-.228-.275-.441-.412-.66A32.921,32.921,0,0,1,212.623,95.547Zm-9.9-74.707c0-4.56,4.943-7.123,9.157-5.312,2.309.992,3.152,3.378,3.006,5.713a4.775,4.775,0,0,1-3.82,4.37c-2.744.582-5.224-.535-5.869-4.118a33.29,33.29,0,0,1-.267-3.6c-.76.9-1.014,2.146-2.206,2.95Z" transform="translate(0 0)" fill-rule="evenodd"/>
  </g>
</svg>
