<svg id="Group_675" data-name="Group 675" xmlns="http://www.w3.org/2000/svg" width="36.512" height="32.861" viewBox="0 0 36.512 32.861">
  <path id="Path_1237" data-name="Path 1237" d="M194.9,277.312H191.25v8.52h1.217V282.18H194.9a2.434,2.434,0,0,0,0-4.868Zm0,3.651h-2.434v-2.434H194.9a1.217,1.217,0,0,1,0,2.434Z" transform="translate(-179.079 -261.49)" fill="#b39854"/>
  <path id="Path_1238" data-name="Path 1238" d="M309.651,277.312H306v8.52h3.651a2.441,2.441,0,0,0,2.434-2.434v-3.651A2.441,2.441,0,0,0,309.651,277.312Zm1.217,6.085a1.15,1.15,0,0,1-1.217,1.217h-2.434v-6.085h2.434a1.15,1.15,0,0,1,1.217,1.217Z" transform="translate(-286.527 -261.49)" fill="#b39854"/>
  <path id="Path_1239" data-name="Path 1239" d="M32.861,40.859H23.124V37.208l-7.3-8.52H2.434A2.441,2.441,0,0,0,0,31.122V59.115a2.441,2.441,0,0,0,2.434,2.434H20.69a2.441,2.441,0,0,0,2.434-2.434V56.681h9.737a3.586,3.586,0,0,0,3.651-3.651V44.51A3.586,3.586,0,0,0,32.861,40.859ZM15.822,30.514l5.72,6.694h-4.5a1.309,1.309,0,0,1-1.217-1.217Zm6.085,28.6a1.22,1.22,0,0,1-1.217,1.217H2.434a1.22,1.22,0,0,1-1.217-1.217V31.122a1.22,1.22,0,0,1,1.217-1.217H14.6V35.99a2.441,2.441,0,0,0,2.434,2.434h4.868v2.434H12.171A3.586,3.586,0,0,0,8.519,44.51v8.52a3.586,3.586,0,0,0,3.651,3.651h9.737ZM35.295,53.03a2.441,2.441,0,0,1-2.434,2.434H12.171A2.441,2.441,0,0,1,9.737,53.03V44.51a2.441,2.441,0,0,1,2.434-2.434h20.69a2.441,2.441,0,0,1,2.434,2.434Z" transform="translate(0 -28.688)" fill="#b39854"/>
  <path id="Path_1240" data-name="Path 1240" d="M420.75,285.832h1.217V282.18h3.651v-1.217h-3.651v-2.434h4.868v-1.217H420.75Z" transform="translate(-393.975 -261.49)" fill="#b39854"/>
</svg>
